<?xml version="1.0" standalone="no"?> 
<!DOCTYPE svg PUBLIC "-//W3C//DTD SVG 1.1//EN" "http://www.w3.org/Graphics/SVG/1.1/DTD/svg11.dtd" >
<svg xmlns="http://www.w3.org/2000/svg">
<defs>
  <font id="dmicon" horiz-adv-x="54">
    <font-face font-family="dmicon"
      units-per-em="512" ascent="448"
      descent="64" />
    <missing-glyph horiz-adv-x="0" />
    <glyph glyph-name="cart-question-mark"
      unicode="&#xF101;"
      horiz-adv-x="552.96" d=" M33.792 282.11199999999997H89.088C89.088 273.91999999999996 92.16 265.72799999999995 98.304 260.60799999999995C104.448 254.46399999999997 111.616 251.392 120.83200000000001 251.392C130.048 251.392 137.216 254.464 143.36 260.60799999999995C149.504 266.752 152.576 273.91999999999996 152.576 283.13599999999997H394.24C394.24 273.91999999999996 397.31199999999995 266.75199999999995 403.456 260.60799999999995C409.6 254.46399999999997 416.768 251.392 424.96000000000004 251.392S441.34400000000005 254.464 446.464 260.60799999999995C452.60800000000006 266.752 455.68 273.91999999999996 455.68 283.13599999999997H518.144C527.36 283.13599999999997 535.552 280.06399999999996 541.696 272.89599999999996C547.84 266.75199999999995 551.936 258.56 551.936 249.34399999999997C551.936 240.128 548.864 231.93599999999998 541.696 225.79199999999997C535.552 219.64799999999994 527.36 215.55199999999996 518.144 215.55199999999996L497.66400000000004 -16.896000000000072C495.616 -27.13600000000008 490.496 -36.35200000000003 480.256 -44.544000000000096C470.016 -51.7120000000001 459.776 -55.808000000000106 448.512 -55.808000000000106H103.42399999999995C91.13599999999995 -55.808000000000106 80.89599999999994 -51.7120000000001 70.65599999999993 -44.544000000000096S55.29599999999994 -28.160000000000082 53.24799999999994 -16.896000000000072L32.76799999999994 215.55199999999994C23.55199999999994 215.55199999999994 15.359999999999939 219.6479999999999 9.21599999999994 225.79199999999992C3.07199999999994 231.93599999999995 -1.02400000000006 240.12799999999993 -1.02400000000006 249.34399999999994C-1.02400000000006 258.55999999999995 2.04799999999994 266.75199999999995 9.21599999999994 272.89599999999996C16.38399999999994 279.03999999999996 24.57599999999994 282.11199999999997 33.79199999999994 282.11199999999997zM105.47199999999994 276.99199999999996C105.47199999999994 279.03999999999996 105.47199999999994 281.0879999999999 106.49599999999994 283.13599999999997L214.0159999999999 417.28C212.9919999999999 421.3759999999999 211.96799999999993 423.4239999999999 211.96799999999993 426.4959999999999C211.96799999999993 432.63999999999993 214.0159999999999 437.75999999999993 218.11199999999994 441.85599999999994C223.23199999999994 445.95199999999994 228.35199999999995 447.99999999999994 234.49599999999995 447.99999999999994C240.63999999999996 447.99999999999994 245.75999999999996 445.95199999999994 249.85599999999997 441.85599999999994C253.95199999999994 437.75999999999993 255.99999999999997 432.63999999999993 255.99999999999997 426.4959999999999C255.99999999999997 421.3759999999999 254.97599999999994 417.28 251.904 413.18399999999997C248.83199999999997 409.08799999999997 245.75999999999996 407.03999999999996 240.63999999999996 404.99199999999996L134.14399999999995 270.84799999999996C132.09599999999998 266.75199999999995 129.02399999999997 264.70399999999995 125.95199999999996 263.67999999999995C121.85599999999995 262.65599999999995 118.78399999999996 262.65599999999995 114.68799999999996 264.70399999999995C110.59199999999996 266.75199999999995 108.54399999999997 268.79999999999995 107.51999999999997 272.89599999999996C105.47199999999998 273.91999999999996 105.47199999999998 274.94399999999996 105.47199999999998 276.99199999999996zM241.664 157.18399999999997C241.664 162.30399999999997 242.688 168.44799999999998 243.712 174.59199999999998C244.736 179.712 246.784 184.832 249.856 188.92799999999994C252.928 193.02399999999994 256 196.09599999999995 261.12 198.14399999999995C265.216 200.19199999999992 270.336 201.21599999999995 277.504 201.21599999999995C286.72 201.21599999999995 293.88800000000003 199.16799999999995 299.00800000000004 194.04799999999994C304.12800000000004 188.92799999999994 307.20000000000005 180.73599999999993 307.20000000000005 170.49599999999992C307.20000000000005 164.35199999999992 306.17600000000004 159.2319999999999 304.12800000000004 155.13599999999997C302.08000000000004 152.0639999999999 299.00800000000004 147.96799999999996 294.91200000000003 143.8719999999999C293.88800000000003 142.8479999999999 290.8160000000001 140.7999999999999 287.7440000000001 138.75199999999995C284.672 136.70399999999995 282.6240000000001 134.65599999999995 281.6 133.63199999999995C277.5040000000001 130.55999999999995 273.408 126.46399999999994 268.288 121.34399999999994C264.19200000000006 117.24799999999993 261.12000000000006 111.10399999999993 257.024 103.93599999999992C253.95200000000003 97.79199999999992 251.90400000000002 89.59999999999991 251.90400000000002 79.3599999999999V63.99999999999994H297.98400000000004V77.3119999999999C299.00800000000004 84.4799999999999 301.05600000000004 89.59999999999991 304.12800000000004 94.71999999999991C308.22400000000005 99.83999999999992 312.32000000000005 103.93599999999992 316.41600000000005 107.00799999999992C318.464 108.03199999999998 320.512 110.07999999999993 324.60800000000006 113.15199999999999L330.75200000000007 117.24799999999993C336.8960000000001 121.34399999999994 342.0160000000001 126.46399999999994 345.088 130.55999999999995C349.184 135.67999999999995 353.28000000000003 141.82399999999996 355.32800000000003 147.96799999999996C358.40000000000003 155.13599999999997 359.42400000000004 163.32799999999997 359.42400000000004 174.59199999999998C359.42400000000004 180.736 358.40000000000003 187.904 355.32800000000003 196.09599999999998C352.2560000000001 203.26399999999998 348.16 210.43199999999996 340.9920000000001 217.6C334.848 223.744 325.63200000000006 229.88799999999998 315.39200000000005 233.984C305.15200000000004 238.07999999999998 291.84000000000003 240.12800000000001 275.4560000000001 240.12800000000001C262.14400000000006 240.12800000000001 250.88000000000008 238.08000000000004 241.66400000000004 233.984C232.44800000000006 229.88800000000003 224.25600000000006 224.76800000000003 216.06400000000005 216.57600000000002C209.92000000000004 210.43200000000002 203.77600000000007 201.216 199.68000000000004 189.952C195.58400000000006 180.736 193.53600000000003 169.47199999999998 193.53600000000003 156.15999999999997H241.66400000000002zM300.03200000000004 -9.728000000000065V42.49599999999998H246.78400000000002V-9.728000000000065H300.03200000000004zM295.93600000000004 439.80799999999994C301.05600000000004 443.90399999999994 306.17600000000004 446.97599999999994 311.29600000000005 446.97599999999994C317.44000000000005 446.97599999999994 322.56000000000006 444.92799999999994 326.656 440.83199999999994C330.75200000000007 436.73599999999993 332.8 431.616 332.8 425.472C332.8 422.4 331.776 419.328 330.75199999999995 416.256L436.22399999999993 283.13599999999997C437.248 281.08799999999997 437.248 279.03999999999996 437.248 276.99199999999996C437.248 274.94399999999996 437.248 273.91999999999996 436.22399999999993 271.87199999999996C435.19999999999993 267.77599999999995 432.128 265.72799999999995 429.0559999999999 263.67999999999995L422.9119999999999 262.65599999999995H418.8159999999999C414.7199999999999 263.67999999999995 412.6719999999999 266.7519999999999 410.62399999999997 270.84799999999996L305.15199999999993 403.9679999999999C301.056 404.9919999999999 296.9599999999999 408.0639999999999 293.8879999999999 412.1599999999999C290.8159999999999 416.2559999999999 289.7919999999999 420.3519999999999 289.7919999999999 425.4719999999999S291.8399999999999 435.71199999999993 295.936 439.80799999999994z" />
  </font>
</defs>
</svg>
